{
  "rawFormatToTypeMappings": [
    "Str=string",
    "uint64=uint64",
    "U64=uint64",
    "uint32=uint32",
    "U32=uint32",
    "Amount=Amount",
    "SaleState=SaleState",
    "SwapState=SwapState",
    "AssetState=AssetState",
    "SaleAccessDefinitionType=SaleAccessDefinitionType",
    "PollState=PollState",
    "ExternalDataType=ExternalDataType",
    "KYCRecoveryStatus=KYCRecoveryStatus",
    "xdr.AccountRuleResource=xdr.AccountRuleResource",
    "xdr.SignerRuleResource=xdr.SignerRuleResource",
    "xdr.AssetPolicy=xdr.AssetPolicy",
    "xdr.LedgerKey=xdr.LedgerKey",
    "xdr.ManageAccountSpecificRuleAction=xdr.ManageAccountSpecificRuleAction",
    "xdr.BindExternalSystemAccountIdResultCode=xdr.BindExternalSystemAccountIdResultCode",
    "xdr.BucketEntryType=xdr.BucketEntryType",
    "xdr.CancelASwapBidResultCode=xdr.CancelASwapBidResultCode",
    "xdr.CancelSaleCreationRequestResultCode=xdr.CancelSaleCreationRequestResultCode",
    "xdr.CheckSaleStateEffect=xdr.CheckSaleStateEffect",
    "xdr.AccountRuleAction=xdr.AccountRuleAction",
    "xdr.AssetPairPolicy=xdr.AssetPairPolicy",
    "xdr.CreateASwapBidCreationRequestResultCode=xdr.CreateASwapBidCreationRequestResultCode",
    "xdr.CreateASwapRequestResultCode=xdr.CreateASwapRequestResultCode",
    "xdr.CreateAccountResultCode=xdr.CreateAccountResultCode",
    "xdr.CreateAmlAlertRequestResultCode=xdr.CreateAmlAlertRequestResultCode",
    "xdr.CreateChangeRoleRequestResultCode=xdr.CreateChangeRoleRequestResultCode",
    "xdr.CreateIssuanceRequestResultCode=xdr.CreateIssuanceRequestResultCode",
    "xdr.CheckSaleStateResultCode=xdr.CheckSaleStateResultCode",
    "xdr.ContractState=xdr.ContractState",
    "xdr.CreateSaleCreationRequestResultCode=xdr.CreateSaleCreationRequestResultCode",
    "xdr.CreateWithdrawalRequestResultCode=xdr.CreateWithdrawalRequestResultCode",
    "xdr.CryptoKeyType=xdr.CryptoKeyType",
    "xdr.EmissionFeeType=xdr.EmissionFeeType",
    "xdr.EnvelopeType=xdr.EnvelopeType",
    "xdr.ErrorCode=xdr.ErrorCode",
    "xdr.CreateManageLimitsRequestResultCode=xdr.CreateManageLimitsRequestResultCode",
    "xdr.CreatePreIssuanceRequestResultCode=xdr.CreatePreIssuanceRequestResultCode",
    "xdr.KeyValueEntryType=xdr.KeyValueEntryType",
    "xdr.LedgerEntryChangeType=xdr.LedgerEntryChangeType",
    "xdr.LedgerEntryType=xdr.LedgerEntryType",
    "xdr.LedgerUpgradeType=xdr.LedgerUpgradeType",
    "xdr.LedgerVersion=xdr.LedgerVersion",
    "xdr.LedgerKey=xdr.LedgerKey",
    "xdr.ManageAccountSpecificRuleAction=xdr.ManageAccountSpecificRuleAction",
    "xdr.LicenseResultCode=xdr.LicenseResultCode",
    "xdr.FeeType=xdr.FeeType",
    "xdr.IpAddrType=xdr.IpAddrType",
    "xdr.ManageAccountRuleAction=xdr.ManageAccountRuleAction",
    "xdr.ManageAccountRuleResultCode=xdr.ManageAccountRuleResultCode",
    "xdr.ManageAssetAction=xdr.ManageAssetAction",
    "xdr.ManageAssetPairAction=xdr.ManageAssetPairAction",
    "xdr.ManageAssetPairResultCode=xdr.ManageAssetPairResultCode",
    "xdr.ManageAssetResultCode=xdr.ManageAssetResultCode",
    "xdr.ManageAccountRoleAction=xdr.ManageAccountRoleAction",
    "xdr.ManageAccountRoleResultCode=xdr.ManageAccountRoleResultCode",
    "xdr.ManageCreatePollRequestAction=xdr.ManageCreatePollRequestAction",
    "xdr.ManageContractAction=xdr.ManageContractAction",
    "xdr.ManageContractRequestAction=xdr.ManageContractRequestAction",
    "xdr.ManageContractRequestResultCode=xdr.ManageContractRequestResultCode",
    "xdr.ManageContractResultCode=xdr.ManageContractResultCode",
    "xdr.ManageExternalSystemAccountIdPoolEntryAction=xdr.ManageExternalSystemAccountIdPoolEntryAction",
    "xdr.ManageExternalSystemAccountIdPoolEntryResultCode=xdr.ManageExternalSystemAccountIdPoolEntryResultCode",
    "xdr.ManageBalanceAction=xdr.ManageBalanceAction",
    "xdr.ManageBalanceResultCode=xdr.ManageBalanceResultCode",
    "xdr.ManageKeyValueResultCode=xdr.ManageKeyValueResultCode",
    "xdr.ManageKvAction=xdr.ManageKvAction",
    "xdr.ManageLimitsAction=xdr.ManageLimitsAction",
    "xdr.ManageLimitsResultCode=xdr.ManageLimitsResultCode",
    "xdr.ManageOfferEffect=xdr.ManageOfferEffect",
    "xdr.ManageOfferResultCode=xdr.ManageOfferResultCode",
    "xdr.ManageInvoiceRequestAction=xdr.ManageInvoiceRequestAction",
    "xdr.ManageInvoiceRequestResultCode=xdr.ManageInvoiceRequestResultCode",
    "xdr.ManagePollAction=xdr.ManagePollAction",
    "xdr.ManageSignerAction=xdr.ManageSignerAction",
    "xdr.ManageSignerResultCode=xdr.ManageSignerResultCode",
    "xdr.ManageSignerRoleAction=xdr.ManageSignerRoleAction",
    "xdr.ManageSignerRoleResultCode=xdr.ManageSignerRoleResultCode",
    "xdr.ManageSignerRuleAction=xdr.ManageSignerRuleAction",
    "xdr.ManageSignerRuleResultCode=xdr.ManageSignerRuleResultCode",
    "xdr.ManageSaleAction=xdr.ManageSaleAction",
    "xdr.ManageSaleResultCode=xdr.ManageSaleResultCode",
    "xdr.ManageVoteAction=xdr.ManageVoteAction",
    "xdr.OperationResultCode=xdr.OperationResultCode",
    "xdr.OperationType=xdr.OperationType",
    "xdr.PaymentDestinationType=xdr.PaymentDestinationType",
    "xdr.PaymentFeeType=xdr.PaymentFeeType",
    "xdr.PaymentResultCode=xdr.PaymentResultCode",
    "xdr.PayoutResultCode=xdr.PayoutResultCode",
    "xdr.MemoType=xdr.MemoType",
    "xdr.MessageType=xdr.MessageType",
    "xdr.ReviewRequestResultCode=xdr.ReviewRequestResultCode",
    "xdr.ReviewableRequestType=xdr.ReviewableRequestType",
    "xdr.SaleType=xdr.SaleType",
    "xdr.ScpStatementType=xdr.ScpStatementType",
    "xdr.SetFeesResultCode=xdr.SetFeesResultCode",
    "xdr.SignerRuleAction=xdr.SignerRuleAction",
    "xdr.PublicKeyType=xdr.PublicKeyType",
    "xdr.ReviewRequestOpAction=xdr.ReviewRequestOpAction",
    "xdr.ThresholdIndexes=xdr.ThresholdIndexes",
    "xdr.TransactionResultCode=xdr.TransactionResultCode",
    "xdr.StampResultCode=xdr.StampResultCode",
    "xdr.PollResult=xdr.PollResult",
    "xdr.PollType=xdr.PollType",
    "xdr.StatsOpType=xdr.StatsOpType",
    "xdr.Uint64=xdr.Uint64",
    "json.RawMessage=json.RawMessage"
  ]
}
